module go.machinelearning.one/mix

go 1.18

require (
	github.com/gin-gonic/gin v1.8.2
	github.com/rs/zerolog v1.28.0
	github.com/spf13/cast v1.5.0
	github.com/spf13/cobra v1.6.1
	github.com/spf13/pflag v1.0.5
	go.etcd.io/bbolt v1.3.6
)

require (
	github.com/gin-contrib/sse v0.1.0 // indirect
	github.com/go-playground/locales v0.14.0 // indirect
	github.com/go-playground/universal-translator v0.18.0 // indirect
	github.com/go-playground/validator/v10 v10.11.1 // indirect
	github.com/goccy/go-json v0.9.11 // indirect
	github.com/google/go-cmp v0.5.9 // indirect
	github.com/inconshreveable/mousetrap v1.0.1 // indirect
	github.com/json-iterator/go v1.1.12 // indirect
	github.com/leodido/go-urn v1.2.1 // indirect
	github.com/mattn/go-colorable v0.1.12 // indirect
	github.com/mattn/go-isatty v0.0.16 // indirect
	github.com/modern-go/concurrent v0.0.0-20180306012644-bacd9c7ef1dd // indirect
	github.com/modern-go/reflect2 v1.0.2 // indirect
	github.com/pelletier/go-toml/v2 v2.0.6 // indirect
	github.com/ugorji/go/codec v1.2.7 // indirect
	golang.org/x/crypto v0.0.0-20220525230936-793ad666bf5e // indirect
	golang.org/x/net v0.4.0 // indirect
	golang.org/x/sys v0.3.0 // indirect
	golang.org/x/text v0.5.0 // indirect
	google.golang.org/protobuf v1.28.1 // indirect
	gopkg.in/yaml.v2 v2.4.0 // indirect
)
